{
    "dependencies": [
        {
            "moduleName": "androidx.activity:activity",
            "moduleUrl": "https://developer.android.com/jetpack/androidx",
            "moduleVersion": "1.1.0",
            "moduleLicense": "The Apache Software License, Version 2.0",
            "moduleLicenseUrl": "http://www.apache.org/licenses/LICENSE-2.0.txt"
        },
        {
            "moduleName": "androidx.annotation:annotation",
            "moduleUrl": "http://developer.android.com/tools/extras/support-library.html",
            "moduleVersion": "1.0.0",
            "moduleLicense": "The Apache Software License, Version 2.0",
            "moduleLicenseUrl": "http://www.apache.org/licenses/LICENSE-2.0.txt"
        },
        {
            "moduleName": "androidx.annotation:annotation",
            "moduleUrl": "http://developer.android.com/tools/extras/support-library.html",
            "moduleVersion": "1.1.0",
            "moduleLicense": "The Apache Software License, Version 2.0",
            "moduleLicenseUrl": "http://www.apache.org/licenses/LICENSE-2.0.txt"
        },
        {
            "moduleName": "androidx.annotation:annotation-experimental",
            "moduleUrl": "https://developer.android.com/jetpack/androidx",
            "moduleVersion": "1.0.0",
            "moduleLicense": "The Apache Software License, Version 2.0",
            "moduleLicenseUrl": "http://www.apache.org/licenses/LICENSE-2.0.txt"
        },
        {
            "moduleName": "androidx.appcompat:appcompat",
            "moduleUrl": "https://developer.android.com/jetpack/androidx",
            "moduleVersion": "1.2.0",
            "moduleLicense": "The Apache Software License, Version 2.0",
            "moduleLicenseUrl": "http://www.apache.org/licenses/LICENSE-2.0.txt"
        },
        {
            "moduleName": "androidx.appcompat:appcompat-resources",
            "moduleUrl": "https://developer.android.com/jetpack/androidx",
            "moduleVersion": "1.2.0",
            "moduleLicense": "The Apache Software License, Version 2.0",
            "moduleLicenseUrl": "http://www.apache.org/licenses/LICENSE-2.0.txt"
        },
        {
            "moduleName": "androidx.arch.core:core-common",
            "moduleUrl": "https://developer.android.com/topic/libraries/architecture/index.html",
            "moduleVersion": "2.0.0",
            "moduleLicense": "The Apache Software License, Version 2.0",
            "moduleLicenseUrl": "http://www.apache.org/licenses/LICENSE-2.0.txt"
        },
        {
            "moduleName": "androidx.arch.core:core-common",
            "moduleUrl": "https://developer.android.com/topic/libraries/architecture/index.html",
            "moduleVersion": "2.1.0",
            "moduleLicense": "The Apache Software License, Version 2.0",
            "moduleLicenseUrl": "http://www.apache.org/licenses/LICENSE-2.0.txt"
        },
        {
            "moduleName": "androidx.arch.core:core-runtime",
            "moduleUrl": "https://developer.android.com/topic/libraries/architecture/index.html",
            "moduleVersion": "2.1.0",
            "moduleLicense": "The Apache Software License, Version 2.0",
            "moduleLicenseUrl": "http://www.apache.org/licenses/LICENSE-2.0.txt"
        },
        {
            "moduleName": "androidx.cardview:cardview",
            "moduleUrl": "http://developer.android.com/tools/extras/support-library.html",
            "moduleVersion": "1.0.0",
            "moduleLicense": "The Apache Software License, Version 2.0",
            "moduleLicenseUrl": "http://www.apache.org/licenses/LICENSE-2.0.txt"
        },
        {
            "moduleName": "androidx.collection:collection",
            "moduleUrl": "http://developer.android.com/tools/extras/support-library.html",
            "moduleVersion": "1.0.0",
            "moduleLicense": "The Apache Software License, Version 2.0",
            "moduleLicenseUrl": "http://www.apache.org/licenses/LICENSE-2.0.txt"
        },
        {
            "moduleName": "androidx.collection:collection",
            "moduleUrl": "http://developer.android.com/tools/extras/support-library.html",
            "moduleVersion": "1.1.0",
            "moduleLicense": "The Apache Software License, Version 2.0",
            "moduleLicenseUrl": "http://www.apache.org/licenses/LICENSE-2.0.txt"
        },
        {
            "moduleName": "androidx.constraintlayout:constraintlayout",
            "moduleUrl": "http://tools.android.com",
            "moduleVersion": "2.0.4",
            "moduleLicense": "The Apache Software License, Version 2.0",
            "moduleLicenseUrl": "http://www.apache.org/licenses/LICENSE-2.0.txt"
        },
        {
            "moduleName": "androidx.constraintlayout:constraintlayout-solver",
            "moduleUrl": "http://tools.android.com",
            "moduleVersion": "2.0.4",
            "moduleLicense": "The Apache Software License, Version 2.0",
            "moduleLicenseUrl": "http://www.apache.org/licenses/LICENSE-2.0.txt"
        },
        {
            "moduleName": "androidx.coordinatorlayout:coordinatorlayout",
            "moduleUrl": "https://developer.android.com/jetpack/androidx",
            "moduleVersion": "1.1.0",
            "moduleLicense": "The Apache Software License, Version 2.0",
            "moduleLicenseUrl": "http://www.apache.org/licenses/LICENSE-2.0.txt"
        },
        {
            "moduleName": "androidx.core:core",
            "moduleUrl": "https://developer.android.com/jetpack/androidx",
            "moduleVersion": "1.3.2",
            "moduleLicense": "The Apache Software License, Version 2.0",
            "moduleLicenseUrl": "http://www.apache.org/licenses/LICENSE-2.0.txt"
        },
        {
            "moduleName": "androidx.cursoradapter:cursoradapter",
            "moduleUrl": "http://developer.android.com/tools/extras/support-library.html",
            "moduleVersion": "1.0.0",
            "moduleLicense": "The Apache Software License, Version 2.0",
            "moduleLicenseUrl": "http://www.apache.org/licenses/LICENSE-2.0.txt"
        },
        {
            "moduleName": "androidx.customview:customview",
            "moduleUrl": "http://developer.android.com/tools/extras/support-library.html",
            "moduleVersion": "1.0.0",
            "moduleLicense": "The Apache Software License, Version 2.0",
            "moduleLicenseUrl": "http://www.apache.org/licenses/LICENSE-2.0.txt"
        },
        {
            "moduleName": "androidx.databinding:databinding-adapters",
            "moduleVersion": "4.1.2",
            "moduleLicense": "The Apache Software License, Version 2.0",
            "moduleLicenseUrl": "http://www.apache.org/licenses/LICENSE-2.0.txt"
        },
        {
            "moduleName": "androidx.databinding:databinding-common",
            "moduleUrl": "https://developer.android.com/studio",
            "moduleVersion": "4.1.2",
            "moduleLicense": "The Apache Software License, Version 2.0",
            "moduleLicenseUrl": "http://www.apache.org/licenses/LICENSE-2.0.txt"
        },
        {
            "moduleName": "androidx.databinding:databinding-compiler",
            "moduleUrl": "https://developer.android.com/studio",
            "moduleVersion": "4.1.2",
            "moduleLicense": "The Apache Software License, Version 2.0",
            "moduleLicenseUrl": "http://www.apache.org/licenses/LICENSE-2.0.txt"
        },
        {
            "moduleName": "androidx.databinding:databinding-compiler-common",
            "moduleUrl": "https://developer.android.com/studio",
            "moduleVersion": "4.1.2",
            "moduleLicense": "The Apache Software License, Version 2.0",
            "moduleLicenseUrl": "http://www.apache.org/licenses/LICENSE-2.0.txt"
        },
        {
            "moduleName": "androidx.databinding:databinding-runtime",
            "moduleVersion": "4.1.2",
            "moduleLicense": "The Apache Software License, Version 2.0",
            "moduleLicenseUrl": "http://www.apache.org/licenses/LICENSE-2.0.txt"
        },
        {
            "moduleName": "androidx.databinding:viewbinding",
            "moduleVersion": "4.1.2",
            "moduleLicense": "The Apache Software License, Version 2.0",
            "moduleLicenseUrl": "http://www.apache.org/licenses/LICENSE-2.0.txt"
        },
        {
            "moduleName": "androidx.drawerlayout:drawerlayout",
            "moduleUrl": "http://developer.android.com/tools/extras/support-library.html",
            "moduleVersion": "1.0.0",
            "moduleLicense": "The Apache Software License, Version 2.0",
            "moduleLicenseUrl": "http://www.apache.org/licenses/LICENSE-2.0.txt"
        },
        {
            "moduleName": "androidx.fragment:fragment",
            "moduleUrl": "https://developer.android.com/jetpack/androidx",
            "moduleVersion": "1.2.0",
            "moduleLicense": "The Apache Software License, Version 2.0",
            "moduleLicenseUrl": "http://www.apache.org/licenses/LICENSE-2.0.txt"
        },
        {
            "moduleName": "androidx.fragment:fragment",
            "moduleUrl": "https://developer.android.com/jetpack/androidx",
            "moduleVersion": "1.2.4",
            "moduleLicense": "The Apache Software License, Version 2.0",
            "moduleLicenseUrl": "http://www.apache.org/licenses/LICENSE-2.0.txt"
        },
        {
            "moduleName": "androidx.interpolator:interpolator",
            "moduleUrl": "http://developer.android.com/tools/extras/support-library.html",
            "moduleVersion": "1.0.0",
            "moduleLicense": "The Apache Software License, Version 2.0",
            "moduleLicenseUrl": "http://www.apache.org/licenses/LICENSE-2.0.txt"
        },
        {
            "moduleName": "androidx.lifecycle:lifecycle-common",
            "moduleUrl": "https://developer.android.com/topic/libraries/architecture/index.html",
            "moduleVersion": "2.0.0",
            "moduleLicense": "The Apache Software License, Version 2.0",
            "moduleLicenseUrl": "http://www.apache.org/licenses/LICENSE-2.0.txt"
        },
        {
            "moduleName": "androidx.lifecycle:lifecycle-common",
            "moduleUrl": "https://developer.android.com/topic/libraries/architecture/index.html",
            "moduleVersion": "2.2.0",
            "moduleLicense": "The Apache Software License, Version 2.0",
            "moduleLicenseUrl": "http://www.apache.org/licenses/LICENSE-2.0.txt"
        },
        {
            "moduleName": "androidx.lifecycle:lifecycle-common-java8",
            "moduleUrl": "https://developer.android.com/topic/libraries/architecture/index.html",
            "moduleVersion": "2.2.0",
            "moduleLicense": "The Apache Software License, Version 2.0",
            "moduleLicenseUrl": "http://www.apache.org/licenses/LICENSE-2.0.txt"
        },
        {
            "moduleName": "androidx.lifecycle:lifecycle-extensions",
            "moduleUrl": "https://developer.android.com/topic/libraries/architecture/index.html",
            "moduleVersion": "2.2.0",
            "moduleLicense": "The Apache Software License, Version 2.0",
            "moduleLicenseUrl": "http://www.apache.org/licenses/LICENSE-2.0.txt"
        },
        {
            "moduleName": "androidx.lifecycle:lifecycle-livedata",
            "moduleUrl": "https://developer.android.com/topic/libraries/architecture/index.html",
            "moduleVersion": "2.2.0",
            "moduleLicense": "The Apache Software License, Version 2.0",
            "moduleLicenseUrl": "http://www.apache.org/licenses/LICENSE-2.0.txt"
        },
        {
            "moduleName": "androidx.lifecycle:lifecycle-livedata-core",
            "moduleUrl": "https://developer.android.com/topic/libraries/architecture/index.html",
            "moduleVersion": "2.2.0",
            "moduleLicense": "The Apache Software License, Version 2.0",
            "moduleLicenseUrl": "http://www.apache.org/licenses/LICENSE-2.0.txt"
        },
        {
            "moduleName": "androidx.lifecycle:lifecycle-process",
            "moduleUrl": "https://developer.android.com/topic/libraries/architecture/index.html",
            "moduleVersion": "2.2.0",
            "moduleLicense": "The Apache Software License, Version 2.0",
            "moduleLicenseUrl": "http://www.apache.org/licenses/LICENSE-2.0.txt"
        },
        {
            "moduleName": "androidx.lifecycle:lifecycle-runtime",
            "moduleUrl": "https://developer.android.com/topic/libraries/architecture/index.html",
            "moduleVersion": "2.0.0",
            "moduleLicense": "The Apache Software License, Version 2.0",
            "moduleLicenseUrl": "http://www.apache.org/licenses/LICENSE-2.0.txt"
        },
        {
            "moduleName": "androidx.lifecycle:lifecycle-runtime",
            "moduleUrl": "https://developer.android.com/topic/libraries/architecture/index.html",
            "moduleVersion": "2.2.0",
            "moduleLicense": "The Apache Software License, Version 2.0",
            "moduleLicenseUrl": "http://www.apache.org/licenses/LICENSE-2.0.txt"
        },
        {
            "moduleName": "androidx.lifecycle:lifecycle-service",
            "moduleUrl": "https://developer.android.com/topic/libraries/architecture/index.html",
            "moduleVersion": "2.2.0",
            "moduleLicense": "The Apache Software License, Version 2.0",
            "moduleLicenseUrl": "http://www.apache.org/licenses/LICENSE-2.0.txt"
        },
        {
            "moduleName": "androidx.lifecycle:lifecycle-viewmodel",
            "moduleUrl": "https://developer.android.com/topic/libraries/architecture/index.html",
            "moduleVersion": "2.2.0",
            "moduleLicense": "The Apache Software License, Version 2.0",
            "moduleLicenseUrl": "http://www.apache.org/licenses/LICENSE-2.0.txt"
        },
        {
            "moduleName": "androidx.lifecycle:lifecycle-viewmodel-savedstate",
            "moduleUrl": "https://developer.android.com/topic/libraries/architecture/index.html",
            "moduleVersion": "1.0.0",
            "moduleLicense": "The Apache Software License, Version 2.0",
            "moduleLicenseUrl": "http://www.apache.org/licenses/LICENSE-2.0.txt"
        },
        {
            "moduleName": "androidx.lifecycle:lifecycle-viewmodel-savedstate",
            "moduleUrl": "https://developer.android.com/topic/libraries/architecture/index.html",
            "moduleVersion": "2.2.0",
            "moduleLicense": "The Apache Software License, Version 2.0",
            "moduleLicenseUrl": "http://www.apache.org/licenses/LICENSE-2.0.txt"
        },
        {
            "moduleName": "androidx.loader:loader",
            "moduleUrl": "http://developer.android.com/tools/extras/support-library.html",
            "moduleVersion": "1.0.0",
            "moduleLicense": "The Apache Software License, Version 2.0",
            "moduleLicenseUrl": "http://www.apache.org/licenses/LICENSE-2.0.txt"
        },
        {
            "moduleName": "androidx.preference:preference",
            "moduleUrl": "https://developer.android.com/jetpack/androidx",
            "moduleVersion": "1.1.1",
            "moduleLicense": "The Apache Software License, Version 2.0",
            "moduleLicenseUrl": "http://www.apache.org/licenses/LICENSE-2.0.txt"
        },
        {
            "moduleName": "androidx.recyclerview:recyclerview",
            "moduleUrl": "https://developer.android.com/jetpack/androidx",
            "moduleVersion": "1.1.0",
            "moduleLicense": "The Apache Software License, Version 2.0",
            "moduleLicenseUrl": "http://www.apache.org/licenses/LICENSE-2.0.txt"
        },
        {
            "moduleName": "androidx.room:room-common",
            "moduleUrl": "https://developer.android.com/topic/libraries/architecture/index.html",
            "moduleVersion": "2.2.5",
            "moduleLicense": "The Apache Software License, Version 2.0",
            "moduleLicenseUrl": "http://www.apache.org/licenses/LICENSE-2.0.txt"
        },
        {
            "moduleName": "androidx.room:room-runtime",
            "moduleUrl": "https://developer.android.com/topic/libraries/architecture/index.html",
            "moduleVersion": "2.2.5",
            "moduleLicense": "The Apache Software License, Version 2.0",
            "moduleLicenseUrl": "http://www.apache.org/licenses/LICENSE-2.0.txt"
        },
        {
            "moduleName": "androidx.savedstate:savedstate",
            "moduleUrl": "https://developer.android.com/jetpack/androidx",
            "moduleVersion": "1.0.0",
            "moduleLicense": "The Apache Software License, Version 2.0",
            "moduleLicenseUrl": "http://www.apache.org/licenses/LICENSE-2.0.txt"
        },
        {
            "moduleName": "androidx.sqlite:sqlite",
            "moduleUrl": "https://developer.android.com/topic/libraries/architecture/index.html",
            "moduleVersion": "2.1.0",
            "moduleLicense": "The Apache Software License, Version 2.0",
            "moduleLicenseUrl": "http://www.apache.org/licenses/LICENSE-2.0.txt"
        },
        {
            "moduleName": "androidx.sqlite:sqlite-framework",
            "moduleUrl": "https://developer.android.com/topic/libraries/architecture/index.html",
            "moduleVersion": "2.1.0",
            "moduleLicense": "The Apache Software License, Version 2.0",
            "moduleLicenseUrl": "http://www.apache.org/licenses/LICENSE-2.0.txt"
        },
        {
            "moduleName": "androidx.swiperefreshlayout:swiperefreshlayout",
            "moduleUrl": "https://developer.android.com/jetpack/androidx",
            "moduleVersion": "1.1.0",
            "moduleLicense": "The Apache Software License, Version 2.0",
            "moduleLicenseUrl": "http://www.apache.org/licenses/LICENSE-2.0.txt"
        },
        {
            "moduleName": "androidx.test.espresso:espresso-core",
            "moduleUrl": "https://developer.android.com/testing",
            "moduleVersion": "3.3.0",
            "moduleLicense": "The Apache Software License, Version 2.0",
            "moduleLicenseUrl": "http://www.apache.org/licenses/LICENSE-2.0.txt"
        },
        {
            "moduleName": "androidx.test.espresso:espresso-idling-resource",
            "moduleUrl": "https://developer.android.com/testing",
            "moduleVersion": "3.3.0",
            "moduleLicense": "The Apache Software License, Version 2.0",
            "moduleLicenseUrl": "http://www.apache.org/licenses/LICENSE-2.0.txt"
        },
        {
            "moduleName": "androidx.test.ext:junit",
            "moduleUrl": "https://developer.android.com/testing",
            "moduleVersion": "1.1.2",
            "moduleLicense": "The Apache Software License, Version 2.0",
            "moduleLicenseUrl": "http://www.apache.org/licenses/LICENSE-2.0.txt"
        },
        {
            "moduleName": "androidx.test:core",
            "moduleUrl": "https://developer.android.com/testing",
            "moduleVersion": "1.3.0",
            "moduleLicense": "The Apache Software License, Version 2.0",
            "moduleLicenseUrl": "http://www.apache.org/licenses/LICENSE-2.0.txt"
        },
        {
            "moduleName": "androidx.test:monitor",
            "moduleUrl": "https://developer.android.com/testing",
            "moduleVersion": "1.3.0",
            "moduleLicense": "The Apache Software License, Version 2.0",
            "moduleLicenseUrl": "http://www.apache.org/licenses/LICENSE-2.0.txt"
        },
        {
            "moduleName": "androidx.test:runner",
            "moduleUrl": "https://developer.android.com/testing",
            "moduleVersion": "1.3.0",
            "moduleLicense": "The Apache Software License, Version 2.0",
            "moduleLicenseUrl": "http://www.apache.org/licenses/LICENSE-2.0.txt"
        },
        {
            "moduleName": "androidx.transition:transition",
            "moduleUrl": "https://developer.android.com/jetpack/androidx",
            "moduleVersion": "1.2.0",
            "moduleLicense": "The Apache Software License, Version 2.0",
            "moduleLicenseUrl": "http://www.apache.org/licenses/LICENSE-2.0.txt"
        },
        {
            "moduleName": "androidx.vectordrawable:vectordrawable",
            "moduleUrl": "https://developer.android.com/jetpack/androidx",
            "moduleVersion": "1.1.0",
            "moduleLicense": "The Apache Software License, Version 2.0",
            "moduleLicenseUrl": "http://www.apache.org/licenses/LICENSE-2.0.txt"
        },
        {
            "moduleName": "androidx.vectordrawable:vectordrawable-animated",
            "moduleUrl": "https://developer.android.com/jetpack/androidx",
            "moduleVersion": "1.1.0",
            "moduleLicense": "The Apache Software License, Version 2.0",
            "moduleLicenseUrl": "http://www.apache.org/licenses/LICENSE-2.0.txt"
        },
        {
            "moduleName": "androidx.versionedparcelable:versionedparcelable",
            "moduleUrl": "http://developer.android.com/tools/extras/support-library.html",
            "moduleVersion": "1.1.0",
            "moduleLicense": "The Apache Software License, Version 2.0",
            "moduleLicenseUrl": "http://www.apache.org/licenses/LICENSE-2.0.txt"
        },
        {
            "moduleName": "androidx.viewpager2:viewpager2",
            "moduleUrl": "https://developer.android.com/jetpack/androidx",
            "moduleVersion": "1.0.0",
            "moduleLicense": "The Apache Software License, Version 2.0",
            "moduleLicenseUrl": "http://www.apache.org/licenses/LICENSE-2.0.txt"
        },
        {
            "moduleName": "androidx.viewpager:viewpager",
            "moduleUrl": "http://developer.android.com/tools/extras/support-library.html",
            "moduleVersion": "1.0.0",
            "moduleLicense": "The Apache Software License, Version 2.0",
            "moduleLicenseUrl": "http://www.apache.org/licenses/LICENSE-2.0.txt"
        },
        {
            "moduleName": "androidx.work:work-runtime",
            "moduleUrl": "https://developer.android.com/topic/libraries/architecture/index.html",
            "moduleVersion": "2.4.0",
            "moduleLicense": "The Apache Software License, Version 2.0",
            "moduleLicenseUrl": "http://www.apache.org/licenses/LICENSE-2.0.txt"
        },
        {
            "moduleName": "com.android.databinding:baseLibrary",
            "moduleUrl": "https://developer.android.com/studio",
            "moduleVersion": "4.1.2",
            "moduleLicense": "The Apache Software License, Version 2.0",
            "moduleLicenseUrl": "http://www.apache.org/licenses/LICENSE-2.0.txt"
        },
        {
            "moduleName": "com.android.tools.analytics-library:protos",
            "moduleUrl": "https://developer.android.com/studio",
            "moduleVersion": "27.1.2",
            "moduleLicense": "The Apache Software License, Version 2.0",
            "moduleLicenseUrl": "http://www.apache.org/licenses/LICENSE-2.0.txt"
        },
        {
            "moduleName": "com.android.tools.analytics-library:shared",
            "moduleUrl": "https://developer.android.com/studio",
            "moduleVersion": "27.1.2",
            "moduleLicense": "The Apache Software License, Version 2.0",
            "moduleLicenseUrl": "http://www.apache.org/licenses/LICENSE-2.0.txt"
        },
        {
            "moduleName": "com.android.tools.analytics-library:tracker",
            "moduleUrl": "https://developer.android.com/studio",
            "moduleVersion": "27.1.2",
            "moduleLicense": "The Apache Software License, Version 2.0",
            "moduleLicenseUrl": "http://www.apache.org/licenses/LICENSE-2.0.txt"
        },
        {
            "moduleName": "com.android.tools.build.jetifier:jetifier-core",
            "moduleUrl": "https://developer.android.com/jetpack/androidx",
            "moduleVersion": "1.0.0-beta09",
            "moduleLicense": "The Apache Software License, Version 2.0",
            "moduleLicenseUrl": "http://www.apache.org/licenses/LICENSE-2.0.txt"
        },
        {
            "moduleName": "com.android.tools.build:aapt2",
            "moduleUrl": "https://developer.android.com/studio",
            "moduleVersion": "4.1.2-6503028",
            "moduleLicense": "The Apache Software License, Version 2.0",
            "moduleLicenseUrl": "http://www.apache.org/licenses/LICENSE-2.0.txt"
        },
        {
            "moduleName": "com.android.tools.build:aapt2-proto",
            "moduleUrl": "https://developer.android.com/studio",
            "moduleVersion": "4.1.0-alpha01-6193524",
            "moduleLicense": "The Apache Software License, Version 2.0",
            "moduleLicenseUrl": "http://www.apache.org/licenses/LICENSE-2.0.txt"
        },
        {
            "moduleName": "com.android.tools.build:apksig",
            "moduleUrl": "https://developer.android.com/studio",
            "moduleVersion": "4.1.2",
            "moduleLicense": "The Apache Software License, Version 2.0",
            "moduleLicenseUrl": "http://www.apache.org/licenses/LICENSE-2.0.txt"
        },
        {
            "moduleName": "com.android.tools.build:apkzlib",
            "moduleUrl": "https://developer.android.com/studio",
            "moduleVersion": "4.1.2",
            "moduleLicense": "The Apache Software License, Version 2.0",
            "moduleLicenseUrl": "http://www.apache.org/licenses/LICENSE-2.0.txt"
        },
        {
            "moduleName": "com.android.tools.build:builder",
            "moduleUrl": "https://developer.android.com/studio",
            "moduleVersion": "4.1.2",
            "moduleLicense": "The Apache Software License, Version 2.0",
            "moduleLicenseUrl": "http://www.apache.org/licenses/LICENSE-2.0.txt"
        },
        {
            "moduleName": "com.android.tools.build:builder-model",
            "moduleUrl": "https://developer.android.com/studio",
            "moduleVersion": "4.1.2",
            "moduleLicense": "The Apache Software License, Version 2.0",
            "moduleLicenseUrl": "http://www.apache.org/licenses/LICENSE-2.0.txt"
        },
        {
            "moduleName": "com.android.tools.build:builder-test-api",
            "moduleUrl": "https://developer.android.com/studio",
            "moduleVersion": "4.1.2",
            "moduleLicense": "The Apache Software License, Version 2.0",
            "moduleLicenseUrl": "http://www.apache.org/licenses/LICENSE-2.0.txt"
        },
        {
            "moduleName": "com.android.tools.build:gradle-api",
            "moduleUrl": "https://developer.android.com/studio",
            "moduleVersion": "4.1.2",
            "moduleLicense": "The Apache Software License, Version 2.0",
            "moduleLicenseUrl": "http://www.apache.org/licenses/LICENSE-2.0.txt"
        },
        {
            "moduleName": "com.android.tools.build:manifest-merger",
            "moduleUrl": "https://developer.android.com/studio",
            "moduleVersion": "27.1.2",
            "moduleLicense": "The Apache Software License, Version 2.0",
            "moduleLicenseUrl": "http://www.apache.org/licenses/LICENSE-2.0.txt"
        },
        {
            "moduleName": "com.android.tools.ddms:ddmlib",
            "moduleUrl": "https://developer.android.com/studio",
            "moduleVersion": "27.1.2",
            "moduleLicense": "The Apache Software License, Version 2.0",
            "moduleLicenseUrl": "http://www.apache.org/licenses/LICENSE-2.0.txt"
        },
        {
            "moduleName": "com.android.tools.external.com-intellij:intellij-core",
            "moduleUrl": "https://developer.android.com/studio",
            "moduleVersion": "27.1.2",
            "moduleLicense": "The Apache Software License, Version 2.0",
            "moduleLicenseUrl": "http://www.apache.org/licenses/LICENSE-2.0.txt"
        },
        {
            "moduleName": "com.android.tools.external.com-intellij:kotlin-compiler",
            "moduleUrl": "https://developer.android.com/studio",
            "moduleVersion": "27.1.2",
            "moduleLicense": "The Apache Software License, Version 2.0",
            "moduleLicenseUrl": "http://www.apache.org/licenses/LICENSE-2.0.txt"
        },
        {
            "moduleName": "com.android.tools.external.org-jetbrains:uast",
            "moduleUrl": "https://developer.android.com/studio",
            "moduleVersion": "27.1.2",
            "moduleLicense": "The Apache Software License, Version 2.0",
            "moduleLicenseUrl": "http://www.apache.org/licenses/LICENSE-2.0.txt"
        },
        {
            "moduleName": "com.android.tools.layoutlib:layoutlib-api",
            "moduleUrl": "https://developer.android.com/studio",
            "moduleVersion": "27.1.2",
            "moduleLicense": "The Apache Software License, Version 2.0",
            "moduleLicenseUrl": "http://www.apache.org/licenses/LICENSE-2.0.txt"
        },
        {
            "moduleName": "com.android.tools.lint:lint",
            "moduleUrl": "https://developer.android.com/studio",
            "moduleVersion": "27.1.2",
            "moduleLicense": "The Apache Software License, Version 2.0",
            "moduleLicenseUrl": "http://www.apache.org/licenses/LICENSE-2.0.txt"
        },
        {
            "moduleName": "com.android.tools.lint:lint-api",
            "moduleUrl": "https://developer.android.com/studio",
            "moduleVersion": "27.1.2",
            "moduleLicense": "The Apache Software License, Version 2.0",
            "moduleLicenseUrl": "http://www.apache.org/licenses/LICENSE-2.0.txt"
        },
        {
            "moduleName": "com.android.tools.lint:lint-checks",
            "moduleUrl": "https://developer.android.com/studio",
            "moduleVersion": "27.1.2",
            "moduleLicense": "The Apache Software License, Version 2.0",
            "moduleLicenseUrl": "http://www.apache.org/licenses/LICENSE-2.0.txt"
        },
        {
            "moduleName": "com.android.tools.lint:lint-gradle",
            "moduleUrl": "https://developer.android.com/studio",
            "moduleVersion": "27.1.2",
            "moduleLicense": "The Apache Software License, Version 2.0",
            "moduleLicenseUrl": "http://www.apache.org/licenses/LICENSE-2.0.txt"
        },
        {
            "moduleName": "com.android.tools.lint:lint-gradle-api",
            "moduleUrl": "https://developer.android.com/studio",
            "moduleVersion": "27.1.2",
            "moduleLicense": "The Apache Software License, Version 2.0",
            "moduleLicenseUrl": "http://www.apache.org/licenses/LICENSE-2.0.txt"
        },
        {
            "moduleName": "com.android.tools.lint:lint-model",
            "moduleUrl": "https://developer.android.com/studio",
            "moduleVersion": "27.1.2",
            "moduleLicense": "The Apache Software License, Version 2.0",
            "moduleLicenseUrl": "http://www.apache.org/licenses/LICENSE-2.0.txt"
        },
        {
            "moduleName": "com.android.tools:annotations",
            "moduleUrl": "https://developer.android.com/studio",
            "moduleVersion": "27.1.2",
            "moduleLicense": "The Apache Software License, Version 2.0",
            "moduleLicenseUrl": "http://www.apache.org/licenses/LICENSE-2.0.txt"
        },
        {
            "moduleName": "com.android.tools:common",
            "moduleUrl": "https://developer.android.com/studio",
            "moduleVersion": "27.1.2",
            "moduleLicense": "The Apache Software License, Version 2.0",
            "moduleLicenseUrl": "http://www.apache.org/licenses/LICENSE-2.0.txt"
        },
        {
            "moduleName": "com.android.tools:dvlib",
            "moduleUrl": "https://developer.android.com/studio",
            "moduleVersion": "27.1.2",
            "moduleLicense": "The Apache Software License, Version 2.0",
            "moduleLicenseUrl": "http://www.apache.org/licenses/LICENSE-2.0.txt"
        },
        {
            "moduleName": "com.android.tools:repository",
            "moduleUrl": "https://developer.android.com/studio",
            "moduleVersion": "27.1.2",
            "moduleLicense": "The Apache Software License, Version 2.0",
            "moduleLicenseUrl": "http://www.apache.org/licenses/LICENSE-2.0.txt"
        },
        {
            "moduleName": "com.android.tools:sdk-common",
            "moduleUrl": "https://developer.android.com/studio",
            "moduleVersion": "27.1.2",
            "moduleLicense": "The Apache Software License, Version 2.0",
            "moduleLicenseUrl": "http://www.apache.org/licenses/LICENSE-2.0.txt"
        },
        {
            "moduleName": "com.android.tools:sdklib",
            "moduleUrl": "https://developer.android.com/studio",
            "moduleVersion": "27.1.2",
            "moduleLicense": "The Apache Software License, Version 2.0",
            "moduleLicenseUrl": "http://www.apache.org/licenses/LICENSE-2.0.txt"
        },
        {
            "moduleName": "com.android:signflinger",
            "moduleUrl": "https://developer.android.com/studio",
            "moduleVersion": "4.1.2",
            "moduleLicense": "The Apache Software License, Version 2.0",
            "moduleLicenseUrl": "http://www.apache.org/licenses/LICENSE-2.0.txt"
        },
        {
            "moduleName": "com.android:zipflinger",
            "moduleUrl": "https://developer.android.com/studio",
            "moduleVersion": "4.1.2",
            "moduleLicense": "The Apache Software License, Version 2.0",
            "moduleLicenseUrl": "http://www.apache.org/licenses/LICENSE-2.0.txt"
        },
        {
            "moduleName": "com.google.android.material:material",
            "moduleUrl": "https://github.com/material-components/material-components-android",
            "moduleVersion": "1.2.1",
            "moduleLicense": "The Apache Software License, Version 2.0",
            "moduleLicenseUrl": "http://www.apache.org/licenses/LICENSE-2.0.txt"
        },
        {
            "moduleName": "com.google.auto:auto-common",
            "moduleVersion": "0.10",
            "moduleLicense": "Apache 2.0",
            "moduleLicenseUrl": "http://www.apache.org/licenses/LICENSE-2.0.txt"
        },
        {
            "moduleName": "com.google.code.findbugs:jsr305",
            "moduleUrl": "http://findbugs.sourceforge.net/",
            "moduleVersion": "2.0.1",
            "moduleLicense": "The Apache Software License, Version 2.0",
            "moduleLicenseUrl": "http://www.apache.org/licenses/LICENSE-2.0.txt"
        },
        {
            "moduleName": "com.google.code.findbugs:jsr305",
            "moduleUrl": "http://findbugs.sourceforge.net/",
            "moduleVersion": "3.0.2",
            "moduleLicense": "The Apache Software License, Version 2.0",
            "moduleLicenseUrl": "http://www.apache.org/licenses/LICENSE-2.0.txt"
        },
        {
            "moduleName": "com.google.code.gson:gson",
            "moduleVersion": "2.8.5",
            "moduleLicense": "Apache 2.0",
            "moduleLicenseUrl": "http://www.apache.org/licenses/LICENSE-2.0.txt"
        },
        {
            "moduleName": "com.google.code.gson:gson",
            "moduleVersion": "2.8.6",
            "moduleLicense": "Apache 2.0",
            "moduleLicenseUrl": "http://www.apache.org/licenses/LICENSE-2.0.txt"
        },
        {
            "moduleName": "com.google.errorprone:error_prone_annotations",
            "moduleVersion": "2.3.2",
            "moduleLicense": "Apache 2.0",
            "moduleLicenseUrl": "http://www.apache.org/licenses/LICENSE-2.0.txt"
        },
        {
            "moduleName": "com.google.guava:failureaccess",
            "moduleUrl": "https://github.com/google/guava/",
            "moduleVersion": "1.0.1",
            "moduleLicense": "The Apache Software License, Version 2.0",
            "moduleLicenseUrl": "http://www.apache.org/licenses/LICENSE-2.0.txt"
        },
        {
            "moduleName": "com.google.guava:guava",
            "moduleUrl": "https://github.com/google/guava/",
            "moduleVersion": "28.1-jre",
            "moduleLicense": "Apache License, Version 2.0",
            "moduleLicenseUrl": "http://www.apache.org/licenses/LICENSE-2.0.txt"
        },
        {
            "moduleName": "com.google.guava:listenablefuture",
            "moduleVersion": "1.0",
            "moduleLicense": "The Apache Software License, Version 2.0",
            "moduleLicenseUrl": "http://www.apache.org/licenses/LICENSE-2.0.txt"
        },
        {
            "moduleName": "com.google.guava:listenablefuture",
            "moduleVersion": "9999.0-empty-to-avoid-conflict-with-guava",
            "moduleLicense": "The Apache Software License, Version 2.0",
            "moduleLicenseUrl": "http://www.apache.org/licenses/LICENSE-2.0.txt"
        },
        {
            "moduleName": "com.google.j2objc:j2objc-annotations",
            "moduleUrl": "https://github.com/google/j2objc/",
            "moduleVersion": "1.3",
            "moduleLicense": "The Apache Software License, Version 2.0",
            "moduleLicenseUrl": "http://www.apache.org/licenses/LICENSE-2.0.txt"
        },
        {
            "moduleName": "com.google.jimfs:jimfs",
            "moduleUrl": "http://www.google.com/",
            "moduleVersion": "1.1",
            "moduleLicense": "The Apache Software License, Version 2.0",
            "moduleLicenseUrl": "http://www.apache.org/licenses/LICENSE-2.0.txt"
        },
        {
            "moduleName": "com.google.protobuf:protobuf-java",
            "moduleUrl": "https://developers.google.com/protocol-buffers/",
            "moduleVersion": "3.10.0",
            "moduleLicense": "3-Clause BSD License",
            "moduleLicenseUrl": "https://opensource.org/licenses/BSD-3-Clause"
        },
        {
            "moduleName": "com.googlecode.json-simple:json-simple",
            "moduleUrl": "http://code.google.com/p/json-simple/",
            "moduleVersion": "1.1",
            "moduleLicense": "The Apache Software License, Version 2.0",
            "moduleLicenseUrl": "http://www.apache.org/licenses/LICENSE-2.0.txt"
        },
        {
            "moduleName": "com.googlecode.juniversalchardet:juniversalchardet",
            "moduleUrl": "http://juniversalchardet.googlecode.com/",
            "moduleVersion": "1.0.3",
            "moduleLicense": "Mozilla Public License 1.1 (MPL 1.1)",
            "moduleLicenseUrl": "http://www.mozilla.org/MPL/MPL-1.1.html"
        },
        {
            "moduleName": "com.squareup.okhttp3:okhttp",
            "moduleVersion": "3.14.9",
            "moduleLicense": "Apache 2.0",
            "moduleLicenseUrl": "http://www.apache.org/licenses/LICENSE-2.0.txt"
        },
        {
            "moduleName": "com.squareup.okhttp3:okhttp",
            "moduleUrl": "https://square.github.io/okhttp/",
            "moduleVersion": "4.9.0",
            "moduleLicense": "The Apache Software License, Version 2.0",
            "moduleLicenseUrl": "http://www.apache.org/licenses/LICENSE-2.0.txt"
        },
        {
            "moduleName": "com.squareup.okio:okio",
            "moduleVersion": "1.17.2",
            "moduleLicense": "Apache 2.0",
            "moduleLicenseUrl": "http://www.apache.org/licenses/LICENSE-2.0.txt"
        },
        {
            "moduleName": "com.squareup.okio:okio",
            "moduleUrl": "https://github.com/square/okio/",
            "moduleVersion": "2.8.0",
            "moduleLicense": "The Apache Software License, Version 2.0",
            "moduleLicenseUrl": "http://www.apache.org/licenses/LICENSE-2.0.txt"
        },
        {
            "moduleName": "com.squareup.retrofit2:converter-gson",
            "moduleUrl": "https://github.com/square/retrofit",
            "moduleVersion": "2.9.0",
            "moduleLicense": "The Apache Software License, Version 2.0",
            "moduleLicenseUrl": "http://www.apache.org/licenses/LICENSE-2.0.txt"
        },
        {
            "moduleName": "com.squareup.retrofit2:retrofit",
            "moduleUrl": "https://github.com/square/retrofit",
            "moduleVersion": "2.9.0",
            "moduleLicense": "The Apache Software License, Version 2.0",
            "moduleLicenseUrl": "http://www.apache.org/licenses/LICENSE-2.0.txt"
        },
        {
            "moduleName": "com.squareup:javapoet",
            "moduleUrl": "http://github.com/square/javapoet/",
            "moduleVersion": "1.10.0",
            "moduleLicense": "Apache 2.0",
            "moduleLicenseUrl": "http://www.apache.org/licenses/LICENSE-2.0.txt"
        },
        {
            "moduleName": "com.squareup:javawriter",
            "moduleUrl": "http://github.com/square/javawriter/",
            "moduleVersion": "2.1.1",
            "moduleLicense": "Apache 2.0",
            "moduleLicenseUrl": "http://www.apache.org/licenses/LICENSE-2.0.txt"
        },
        {
            "moduleName": "com.squareup:javawriter",
            "moduleUrl": "http://github.com/square/javawriter/",
            "moduleVersion": "2.5.0",
            "moduleLicense": "Apache 2.0",
            "moduleLicenseUrl": "http://www.apache.org/licenses/LICENSE-2.0.txt"
        },
        {
            "moduleName": "com.sun.activation:javax.activation",
            "moduleUrl": "http://www.oracle.com",
            "moduleVersion": "1.2.0",
            "moduleLicense": "COMMON DEVELOPMENT AND DISTRIBUTION LICENSE (CDDL) Version 1.0",
            "moduleLicenseUrl": "https://opensource.org/licenses/CDDL-1.0"
        },
        {
            "moduleName": "com.sun.istack:istack-commons-runtime",
            "moduleUrl": "http://www.oracle.com/",
            "moduleVersion": "3.0.7",
            "moduleLicense": "GPL2 w/ CPE",
            "moduleLicenseUrl": "https://glassfish.java.net/public/CDDL+GPL_1_1.html"
        },
        {
            "moduleName": "com.sun.xml.fastinfoset:FastInfoset",
            "moduleUrl": "http://www.oracle.com",
            "moduleVersion": "1.2.15",
            "moduleLicense": "Apache License, Version 2.0",
            "moduleLicenseUrl": "http://www.opensource.org/licenses/apache2.0.php"
        },
        {
            "moduleName": "commons-codec:commons-codec",
            "moduleUrl": "http://commons.apache.org/proper/commons-codec/",
            "moduleVersion": "1.10",
            "moduleLicense": "Apache License, Version 2.0",
            "moduleLicenseUrl": "http://www.apache.org/licenses/LICENSE-2.0.txt"
        },
        {
            "moduleName": "commons-io:commons-io",
            "moduleUrl": "http://commons.apache.org/io/",
            "moduleVersion": "2.4",
            "moduleLicense": "The Apache Software License, Version 2.0",
            "moduleLicenseUrl": "http://www.apache.org/licenses/LICENSE-2.0.txt"
        },
        {
            "moduleName": "commons-logging:commons-logging",
            "moduleUrl": "http://commons.apache.org/proper/commons-logging/",
            "moduleVersion": "1.2",
            "moduleLicense": "The Apache Software License, Version 2.0",
            "moduleLicenseUrl": "http://www.apache.org/licenses/LICENSE-2.0.txt"
        },
        {
            "moduleName": "it.unimi.dsi:fastutil",
            "moduleUrl": "http://fasutil.di.unimi.it/",
            "moduleVersion": "7.2.0",
            "moduleLicense": "Apache License, Version 2.0",
            "moduleLicenseUrl": "http://www.apache.org/licenses/LICENSE-2.0.html"
        },
        {
            "moduleName": "javax.activation:javax.activation-api",
            "moduleUrl": "http://www.oracle.com",
            "moduleVersion": "1.2.0",
            "moduleLicense": "COMMON DEVELOPMENT AND DISTRIBUTION LICENSE (CDDL) Version 1.0",
            "moduleLicenseUrl": "https://opensource.org/licenses/CDDL-1.0"
        },
        {
            "moduleName": "javax.inject:javax.inject",
            "moduleUrl": "http://code.google.com/p/atinject/",
            "moduleVersion": "1",
            "moduleLicense": "The Apache Software License, Version 2.0",
            "moduleLicenseUrl": "http://www.apache.org/licenses/LICENSE-2.0.txt"
        },
        {
            "moduleName": "javax.xml.bind:jaxb-api",
            "moduleUrl": "http://www.oracle.com/",
            "moduleVersion": "2.3.1",
            "moduleLicense": "GPL2 w/ CPE",
            "moduleLicenseUrl": "https://oss.oracle.com/licenses/CDDL+GPL-1.1"
        },
        {
            "moduleName": "junit:junit",
            "moduleUrl": "http://junit.org",
            "moduleVersion": "4.12",
            "moduleLicense": "Eclipse Public License 1.0",
            "moduleLicenseUrl": "http://www.eclipse.org/legal/epl-v10.html"
        },
        {
            "moduleName": "net.sf.jopt-simple:jopt-simple",
            "moduleUrl": "http://pholser.github.com/jopt-simple",
            "moduleVersion": "4.9",
            "moduleLicense": "The MIT License",
            "moduleLicenseUrl": "http://www.opensource.org/licenses/mit-license.php"
        },
        {
            "moduleName": "net.sf.kxml:kxml2",
            "moduleUrl": "http://kxml.sourceforge.net/",
            "moduleVersion": "2.3.0",
            "moduleLicense": "Public Domain",
            "moduleLicenseUrl": "http://creativecommons.org/licenses/publicdomain"
        },
        {
            "moduleName": "org.antlr:antlr4",
            "moduleVersion": "4.5.3",
            "moduleLicense": "The BSD License",
            "moduleLicenseUrl": "http://www.antlr.org/license.html"
        },
        {
            "moduleName": "org.apache.commons:commons-compress",
            "moduleUrl": "http://commons.apache.org/proper/commons-compress/",
            "moduleVersion": "1.12",
            "moduleLicense": "Apache License, Version 2.0",
            "moduleLicenseUrl": "http://www.apache.org/licenses/LICENSE-2.0.txt"
        },
        {
            "moduleName": "org.apache.httpcomponents:httpclient",
            "moduleUrl": "http://hc.apache.org/httpcomponents-client",
            "moduleVersion": "4.5.6",
            "moduleLicense": "Apache License, Version 2.0",
            "moduleLicenseUrl": "http://www.apache.org/licenses/LICENSE-2.0.txt"
        },
        {
            "moduleName": "org.apache.httpcomponents:httpcore",
            "moduleUrl": "http://hc.apache.org/httpcomponents-core-ga",
            "moduleVersion": "4.4.10",
            "moduleLicense": "Apache License, Version 2.0",
            "moduleLicenseUrl": "http://www.apache.org/licenses/LICENSE-2.0.txt"
        },
        {
            "moduleName": "org.apache.httpcomponents:httpmime",
            "moduleUrl": "http://hc.apache.org/httpcomponents-client",
            "moduleVersion": "4.5.6",
            "moduleLicense": "Apache License, Version 2.0",
            "moduleLicenseUrl": "http://www.apache.org/licenses/LICENSE-2.0.txt"
        },
        {
            "moduleName": "org.bouncycastle:bcpkix-jdk15on",
            "moduleUrl": "http://www.bouncycastle.org/java.html",
            "moduleVersion": "1.56",
            "moduleLicense": "Bouncy Castle Licence",
            "moduleLicenseUrl": "http://www.bouncycastle.org/licence.html"
        },
        {
            "moduleName": "org.bouncycastle:bcprov-jdk15on",
            "moduleUrl": "http://www.bouncycastle.org/java.html",
            "moduleVersion": "1.56",
            "moduleLicense": "Bouncy Castle Licence",
            "moduleLicenseUrl": "http://www.bouncycastle.org/licence.html"
        },
        {
            "moduleName": "org.checkerframework:checker-qual",
            "moduleUrl": "https://checkerframework.org",
            "moduleVersion": "2.8.1",
            "moduleLicense": "The MIT License",
            "moduleLicenseUrl": "http://opensource.org/licenses/MIT"
        },
        {
            "moduleName": "org.codehaus.groovy:groovy-all",
            "moduleUrl": "http://groovy-lang.org",
            "moduleVersion": "2.4.15",
            "moduleLicense": "The Apache Software License, Version 2.0",
            "moduleLicenseUrl": "http://www.apache.org/licenses/LICENSE-2.0.txt"
        },
        {
            "moduleName": "org.codehaus.mojo:animal-sniffer-annotations",
            "moduleVersion": "1.18",
            "moduleLicense": "The Apache Software License, Version 2.0",
            "moduleLicenseUrl": "http://www.apache.org/licenses/LICENSE-2.0.txt"
        },
        {
            "moduleName": "org.glassfish.jaxb:jaxb-runtime",
            "moduleVersion": "2.3.1",
            "moduleLicense": "CDDL+GPL License",
            "moduleLicenseUrl": "http://glassfish.java.net/public/CDDL+GPL_1_1.html"
        },
        {
            "moduleName": "org.glassfish.jaxb:txw2",
            "moduleVersion": "2.3.1",
            "moduleLicense": "CDDL+GPL License",
            "moduleLicenseUrl": "http://glassfish.java.net/public/CDDL+GPL_1_1.html"
        },
        {
            "moduleName": "org.hamcrest:hamcrest-core",
            "moduleVersion": "1.3",
            "moduleLicense": "New BSD License",
            "moduleLicenseUrl": "http://www.opensource.org/licenses/bsd-license.php"
        },
        {
            "moduleName": "org.hamcrest:hamcrest-integration",
            "moduleVersion": "1.3",
            "moduleLicense": "New BSD License",
            "moduleLicenseUrl": "http://www.opensource.org/licenses/bsd-license.php"
        },
        {
            "moduleName": "org.hamcrest:hamcrest-library",
            "moduleVersion": "1.3",
            "moduleLicense": "New BSD License",
            "moduleLicenseUrl": "http://www.opensource.org/licenses/bsd-license.php"
        },
        {
            "moduleName": "org.jetbrains.intellij.deps:trove4j",
            "moduleUrl": "https://github.com/JetBrains/intellij-deps-trove4j",
            "moduleVersion": "1.0.20181211",
            "moduleLicense": "GNU LESSER GENERAL PUBLIC LICENSE 2.1",
            "moduleLicenseUrl": "https://www.gnu.org/licenses/old-licenses/lgpl-2.1.en.html"
        },
        {
            "moduleName": "org.jetbrains.kotlin:kotlin-annotation-processing-gradle",
            "moduleUrl": "https://kotlinlang.org/",
            "moduleVersion": "1.4.21",
            "moduleLicense": "The Apache License, Version 2.0",
            "moduleLicenseUrl": "http://www.apache.org/licenses/LICENSE-2.0.txt"
        },
        {
            "moduleName": "org.jetbrains.kotlin:kotlin-compiler-embeddable",
            "moduleUrl": "https://kotlinlang.org/",
            "moduleVersion": "1.4.21",
            "moduleLicense": "The Apache License, Version 2.0",
            "moduleLicenseUrl": "http://www.apache.org/licenses/LICENSE-2.0.txt"
        },
        {
            "moduleName": "org.jetbrains.kotlin:kotlin-daemon-embeddable",
            "moduleUrl": "https://kotlinlang.org/",
            "moduleVersion": "1.4.21",
            "moduleLicense": "The Apache License, Version 2.0",
            "moduleLicenseUrl": "http://www.apache.org/licenses/LICENSE-2.0.txt"
        },
        {
            "moduleName": "org.jetbrains.kotlin:kotlin-klib-commonizer-embeddable",
            "moduleUrl": "https://kotlinlang.org/",
            "moduleVersion": "1.4.21",
            "moduleLicense": "The Apache License, Version 2.0",
            "moduleLicenseUrl": "http://www.apache.org/licenses/LICENSE-2.0.txt"
        },
        {
            "moduleName": "org.jetbrains.kotlin:kotlin-reflect",
            "moduleUrl": "https://kotlinlang.org/",
            "moduleVersion": "1.3.72",
            "moduleLicense": "The Apache License, Version 2.0",
            "moduleLicenseUrl": "http://www.apache.org/licenses/LICENSE-2.0.txt"
        },
        {
            "moduleName": "org.jetbrains.kotlin:kotlin-reflect",
            "moduleUrl": "https://kotlinlang.org/",
            "moduleVersion": "1.4.21",
            "moduleLicense": "The Apache License, Version 2.0",
            "moduleLicenseUrl": "http://www.apache.org/licenses/LICENSE-2.0.txt"
        },
        {
            "moduleName": "org.jetbrains.kotlin:kotlin-script-runtime",
            "moduleUrl": "https://kotlinlang.org/",
            "moduleVersion": "1.4.21",
            "moduleLicense": "The Apache License, Version 2.0",
            "moduleLicenseUrl": "http://www.apache.org/licenses/LICENSE-2.0.txt"
        },
        {
            "moduleName": "org.jetbrains.kotlin:kotlin-stdlib",
            "moduleUrl": "https://kotlinlang.org/",
            "moduleVersion": "1.3.72",
            "moduleLicense": "The Apache License, Version 2.0",
            "moduleLicenseUrl": "http://www.apache.org/licenses/LICENSE-2.0.txt"
        },
        {
            "moduleName": "org.jetbrains.kotlin:kotlin-stdlib",
            "moduleUrl": "https://kotlinlang.org/",
            "moduleVersion": "1.4.10",
            "moduleLicense": "The Apache License, Version 2.0",
            "moduleLicenseUrl": "http://www.apache.org/licenses/LICENSE-2.0.txt"
        },
        {
            "moduleName": "org.jetbrains.kotlin:kotlin-stdlib",
            "moduleUrl": "https://kotlinlang.org/",
            "moduleVersion": "1.4.21",
            "moduleLicense": "The Apache License, Version 2.0",
            "moduleLicenseUrl": "http://www.apache.org/licenses/LICENSE-2.0.txt"
        },
        {
            "moduleName": "org.jetbrains.kotlin:kotlin-stdlib-common",
            "moduleUrl": "https://kotlinlang.org/",
            "moduleVersion": "1.3.72",
            "moduleLicense": "The Apache License, Version 2.0",
            "moduleLicenseUrl": "http://www.apache.org/licenses/LICENSE-2.0.txt"
        },
        {
            "moduleName": "org.jetbrains.kotlin:kotlin-stdlib-common",
            "moduleUrl": "https://kotlinlang.org/",
            "moduleVersion": "1.4.10",
            "moduleLicense": "The Apache License, Version 2.0",
            "moduleLicenseUrl": "http://www.apache.org/licenses/LICENSE-2.0.txt"
        },
        {
            "moduleName": "org.jetbrains.kotlin:kotlin-stdlib-common",
            "moduleUrl": "https://kotlinlang.org/",
            "moduleVersion": "1.4.21",
            "moduleLicense": "The Apache License, Version 2.0",
            "moduleLicenseUrl": "http://www.apache.org/licenses/LICENSE-2.0.txt"
        },
        {
            "moduleName": "org.jetbrains.kotlin:kotlin-stdlib-jdk7",
            "moduleUrl": "https://kotlinlang.org/",
            "moduleVersion": "1.3.72",
            "moduleLicense": "The Apache License, Version 2.0",
            "moduleLicenseUrl": "http://www.apache.org/licenses/LICENSE-2.0.txt"
        },
        {
            "moduleName": "org.jetbrains.kotlin:kotlin-stdlib-jdk8",
            "moduleUrl": "https://kotlinlang.org/",
            "moduleVersion": "1.3.72",
            "moduleLicense": "The Apache License, Version 2.0",
            "moduleLicenseUrl": "http://www.apache.org/licenses/LICENSE-2.0.txt"
        },
        {
            "moduleName": "org.jetbrains.kotlinx:kotlinx-coroutines-android",
            "moduleUrl": "https://github.com/Kotlin/kotlinx.coroutines",
            "moduleVersion": "1.4.2-native-mt",
            "moduleLicense": "The Apache Software License, Version 2.0",
            "moduleLicenseUrl": "https://www.apache.org/licenses/LICENSE-2.0.txt"
        },
        {
            "moduleName": "org.jetbrains.kotlinx:kotlinx-coroutines-core",
            "moduleVersion": "1.4.2-native-mt"
        },
        {
            "moduleName": "org.jetbrains.kotlinx:kotlinx-coroutines-core-jvm",
            "moduleUrl": "https://github.com/Kotlin/kotlinx.coroutines",
            "moduleVersion": "1.4.2-native-mt",
            "moduleLicense": "The Apache Software License, Version 2.0",
            "moduleLicenseUrl": "https://www.apache.org/licenses/LICENSE-2.0.txt"
        },
        {
            "moduleName": "org.jetbrains.kotlinx:kotlinx-coroutines-core-metadata",
            "moduleVersion": "1.4.2-native-mt"
        },
        {
            "moduleName": "org.jetbrains.trove4j:trove4j",
            "moduleVersion": "20160824"
        },
        {
            "moduleName": "org.jetbrains:annotations",
            "moduleUrl": "http://www.jetbrains.org",
            "moduleVersion": "13.0",
            "moduleLicense": "The Apache Software License, Version 2.0",
            "moduleLicenseUrl": "http://www.apache.org/licenses/LICENSE-2.0.txt"
        },
        {
            "moduleName": "org.jvnet.staxex:stax-ex",
            "moduleUrl": "http://stax-ex.java.net/",
            "moduleVersion": "1.8",
            "moduleLicense": "Dual license consisting of the CDDL v1.1 and GPL v2",
            "moduleLicenseUrl": "https://glassfish.dev.java.net/public/CDDL+GPL_1_1.html"
        },
        {
            "moduleName": "org.ow2.asm:asm",
            "moduleUrl": "http://asm.ow2.org/",
            "moduleVersion": "7.0",
            "moduleLicense": "The Apache Software License, Version 2.0",
            "moduleLicenseUrl": "http://www.apache.org/licenses/LICENSE-2.0.txt"
        },
        {
            "moduleName": "org.ow2.asm:asm-analysis",
            "moduleUrl": "http://asm.ow2.org/",
            "moduleVersion": "7.0",
            "moduleLicense": "The Apache Software License, Version 2.0",
            "moduleLicenseUrl": "http://www.apache.org/licenses/LICENSE-2.0.txt"
        },
        {
            "moduleName": "org.ow2.asm:asm-commons",
            "moduleUrl": "http://asm.ow2.org/",
            "moduleVersion": "7.0",
            "moduleLicense": "The Apache Software License, Version 2.0",
            "moduleLicenseUrl": "http://www.apache.org/licenses/LICENSE-2.0.txt"
        },
        {
            "moduleName": "org.ow2.asm:asm-tree",
            "moduleUrl": "http://asm.ow2.org/",
            "moduleVersion": "7.0",
            "moduleLicense": "The Apache Software License, Version 2.0",
            "moduleLicenseUrl": "http://www.apache.org/licenses/LICENSE-2.0.txt"
        },
        {
            "moduleName": "org.ow2.asm:asm-util",
            "moduleUrl": "http://asm.ow2.org/",
            "moduleVersion": "7.0",
            "moduleLicense": "The Apache Software License, Version 2.0",
            "moduleLicenseUrl": "http://www.apache.org/licenses/LICENSE-2.0.txt"
        }
    ]
}